…
- **15-4-202.16**: This Violation occurs when a Food Establishment in
  the City of Goodeats is noted by an Inspector to have issues regarding
  “Non-Food Contact Surfaces.” Between 2012 and 2018, there were
  approximately $1,037$ of these Violations, on average. 2012 and 2016
  were the two primary years that this Violation occurred more
  frequently than usual.

<!-- -->

    ## # A tibble: 90 × 9
    ## # Groups:   VIOLATION [90]
    ##    VIOLATION           VIOLDESC `2012` `2013` `2014` `2015` `2016` `2017` `2018`
    ##    <chr>               <chr>     <int>  <int>  <int>  <int>  <int>  <int>  <int>
    ##  1 01-3-101/701.11     Spoilag…   2529   2409   1925   2147   2094   1818    922
    ##  2 01-3-201.11         Approve…   1880   1736   1504   1606   1502   1286    718
    ##  3 01-3-202.11-.17     Recievi…    254    231    193    161    199    190     80
    ##  4 01-3-202.12         Approve…     57     49     40     46     62     51     31
    ##  5 01-3-202.18         Shellst…    612    491    560    609    524    491    241
    ##  6 01-3-203.12         Tags & …    771    684    722    694    617    588    295
    ##  7 01-3-602.11 B2      Labelin…   3681   3326   2963   3094   3574   3056   1565
    ##  8 02-3-201.11F        Safe Fo…    791    705    556    666    628    596    263
    ##  9 02-3-602.11-.12/3-… Food Co…  14307  13774  12280  13278  14548  12257   5958
    ## 10 03-3-402.11-.12     Parasit…    110    115    107     85     82     75     27
    ## # ℹ 80 more rows
…
    ## # A tibble: 90 × 9
    ## # Groups:   VIOLATION [90]
    ##    VIOLATION           VIOLDESC `2012` `2013` `2014` `2015` `2016` `2017` `2018`
    ##    <chr>               <chr>     <int>  <int>  <int>  <int>  <int>  <int>  <int>
    ##  1 01-3-101/701.11     Spoilag…    509    539    526    587    588    450    289
    ##  2 01-3-201.11         Approve…    418    382    396    421    384    311    238
    ##  3 01-3-202.11-.17     Recievi…     56     58     53     34     66     53     24
    ##  4 01-3-202.12         Approve…     10     10      6     14     21     11     10
    ##  5 01-3-202.18         Shellst…    151    122    181    191    139    129     62
    ##  6 01-3-203.12         Tags & …    207    158    230    201    180    147     75
    ##  7 01-3-602.11 B2      Labelin…    757    740    714    718    962    739    389
    ##  8 02-3-201.11F        Safe Fo…    156    130    114    158    121    118     74
    ##  9 02-3-602.11-.12/3-… Food Co…   3095   3272   3378   3720   4255   3020   1904
    ## 10 03-3-402.11-.12     Parasit…     32     23     45     26     18     18     10
    ## # ℹ 80 more rows
…
